name: Endpoints
description: ''
endpoints:
  -
    httpMethods:
      - POST
    uri: api/login
    metadata:
      groupName: Endpoints
      groupDescription: ''
      subgroup: ''
      subgroupDescription: ''
      title: ''
      description: ''
      authenticated: false
      custom: []
    headers:
      Content-Type: application/json
      Accept: application/json
    urlParameters: []
    cleanUrlParameters: []
    queryParameters: []
    cleanQueryParameters: []
    bodyParameters:
      email:
        name: email
        description: 'Must be a valid email address.'
        required: true
        example: qlemke@example.com
        type: string
        enumValues: []
        exampleWasSpecified: false
        nullable: false
        custom: []
      password:
        name: password
        description: ''
        required: true
        example: '2tEtd{Y/N<7Tn\DD'
        type: string
        enumValues: []
        exampleWasSpecified: false
        nullable: false
        custom: []
    cleanBodyParameters:
      email: qlemke@example.com
      password: '2tEtd{Y/N<7Tn\DD'
    fileParameters: []
    responses: []
    responseFields: []
    auth: []
    controller: null
    method: null
    route: null
    custom: []
  -
    httpMethods:
      - POST
    uri: api/logout
    metadata:
      groupName: Endpoints
      groupDescription: ''
      subgroup: ''
      subgroupDescription: ''
      title: ''
      description: ''
      authenticated: false
      custom: []
    headers:
      Content-Type: application/json
      Accept: application/json
    urlParameters: []
    cleanUrlParameters: []
    queryParameters: []
    cleanQueryParameters: []
    bodyParameters: []
    cleanBodyParameters: []
    fileParameters: []
    responses: []
    responseFields: []
    auth: []
    controller: null
    method: null
    route: null
    custom: []
  -
    httpMethods:
      - GET
    uri: api/user
    metadata:
      groupName: Endpoints
      groupDescription: ''
      subgroup: ''
      subgroupDescription: ''
      title: ''
      description: ''
      authenticated: false
      custom: []
    headers:
      Content-Type: application/json
      Accept: application/json
    urlParameters: []
    cleanUrlParameters: []
    queryParameters: []
    cleanQueryParameters: []
    bodyParameters: []
    cleanBodyParameters: []
    fileParameters: []
    responses:
      -
        status: 401
        content: '{"message":"Unauthenticated."}'
        headers:
          cache-control: 'no-cache, private'
          content-type: application/json
          access-control-allow-origin: '*'
        description: null
        custom: []
    responseFields: []
    auth: []
    controller: null
    method: null
    route: null
    custom: []
  -
    httpMethods:
      - POST
    uri: api/user/preferences
    metadata:
      groupName: Endpoints
      groupDescription: ''
      subgroup: ''
      subgroupDescription: ''
      title: ''
      description: ''
      authenticated: false
      custom: []
    headers:
      Content-Type: application/json
      Accept: application/json
    urlParameters: []
    cleanUrlParameters: []
    queryParameters: []
    cleanQueryParameters: []
    bodyParameters:
      preferred_sources:
        name: preferred_sources
        description: ''
        required: false
        example: null
        type: object
        enumValues: []
        exampleWasSpecified: false
        nullable: false
        custom: []
      preferred_categories:
        name: preferred_categories
        description: ''
        required: false
        example: null
        type: object
        enumValues: []
        exampleWasSpecified: false
        nullable: false
        custom: []
      preferred_authors:
        name: preferred_authors
        description: ''
        required: false
        example: null
        type: object
        enumValues: []
        exampleWasSpecified: false
        nullable: false
        custom: []
    cleanBodyParameters: []
    fileParameters: []
    responses: []
    responseFields: []
    auth: []
    controller: null
    method: null
    route: null
    custom: []
  -
    httpMethods:
      - GET
    uri: api/user/preferences
    metadata:
      groupName: Endpoints
      groupDescription: ''
      subgroup: ''
      subgroupDescription: ''
      title: ''
      description: ''
      authenticated: false
      custom: []
    headers:
      Content-Type: application/json
      Accept: application/json
    urlParameters: []
    cleanUrlParameters: []
    queryParameters: []
    cleanQueryParameters: []
    bodyParameters: []
    cleanBodyParameters: []
    fileParameters: []
    responses:
      -
        status: 401
        content: '{"message":"Unauthenticated."}'
        headers:
          cache-control: 'no-cache, private'
          content-type: application/json
          access-control-allow-origin: '*'
        description: null
        custom: []
    responseFields: []
    auth: []
    controller: null
    method: null
    route: null
    custom: []
  -
    httpMethods:
      - GET
    uri: api/filters/categories
    metadata:
      groupName: Endpoints
      groupDescription: ''
      subgroup: ''
      subgroupDescription: ''
      title: ''
      description: ''
      authenticated: false
      custom: []
    headers:
      Content-Type: application/json
      Accept: application/json
    urlParameters: []
    cleanUrlParameters: []
    queryParameters: []
    cleanQueryParameters: []
    bodyParameters: []
    cleanBodyParameters: []
    fileParameters: []
    responses:
      -
        status: 200
        content: '{"categories":["Variety","Motorsport.com","Page Six","Financial Times","Politico","Forbes","POLITICO.eu","CNN","Axios","The Verge","Associated Press","Yahoo Entertainment","Gizmodo.com","Middle East crisis live","Israel","Gaza","Hamas","Donald Trump","Benjamin Netanyahu","Palestinian territories","US news","World news","Politics","UK news","Politics live with Andrew Sparrow","Keir Starmer","Brexit","Labour","Conservatives","European Union","Trade policy","Foreign policy","Trump administration","Europe","Donald Tusk","Bridget Phillipson","Education","Schools","Ofsted","Greenland","Commonwealth of Nations","King Charles III","Kemi Badenoch","US politics","Monarchy","Green party","Proportional representation","Europe live with Jakub Krupa","Emmanuel Macron","International trade","Global economy","Transfer window","Football","Sport","Premier League","European club football","Manchester United","US politics live with Chris Stein","US politics live","Mexico","Canada","China","Republicans","Social work","Other lives","Brighton","University of East Anglia","Children","Nottingham","Nottingham Forest","England","Transgender","LGBTQ+ rights","Health","Cate Blanchett","#MeToo movement","Film","Culture","Harvey Weinstein","us","business","world","arts","style","health","opinion","science"]}'
        headers:
          cache-control: 'no-cache, private'
          content-type: application/json
          access-control-allow-origin: '*'
        description: null
        custom: []
    responseFields: []
    auth: []
    controller: null
    method: null
    route: null
    custom: []
  -
    httpMethods:
      - GET
    uri: api/filters/sources
    metadata:
      groupName: Endpoints
      groupDescription: ''
      subgroup: ''
      subgroupDescription: ''
      title: ''
      description: ''
      authenticated: false
      custom: []
    headers:
      Content-Type: application/json
      Accept: application/json
    urlParameters: []
    cleanUrlParameters: []
    queryParameters: []
    cleanQueryParameters: []
    bodyParameters: []
    cleanBodyParameters: []
    fileParameters: []
    responses:
      -
        status: 200
        content: '{"sources":["NewsAPI","Guardian","NYTimes"]}'
        headers:
          cache-control: 'no-cache, private'
          content-type: application/json
          access-control-allow-origin: '*'
        description: null
        custom: []
    responseFields: []
    auth: []
    controller: null
    method: null
    route: null
    custom: []
  -
    httpMethods:
      - GET
    uri: api/filters/authors
    metadata:
      groupName: Endpoints
      groupDescription: ''
      subgroup: ''
      subgroupDescription: ''
      title: ''
      description: ''
      authenticated: false
      custom: []
    headers:
      Content-Type: application/json
      Accept: application/json
    urlParameters: []
    cleanUrlParameters: []
    queryParameters: []
    cleanQueryParameters: []
    bodyParameters: []
    cleanBodyParameters: []
    fileParameters: []
    responses:
      -
        status: 200
        content: '{"authors":["Jack Dunn","Nick DeGroot","Eileen Reslen","Tina Moore","Joe Miller","Alex Rogers","James Politi","David Cohen","Monica Mercuri","Zia Weise","Billy Stockwell","Avery Lotz","Rebecca Rubin","Daniel Payne","Brandon Widder","Gary Fineout","MATTHEW LEE","Jesse Cohen","Gizmodo Deals","Daniel Lavelle","Yohannes Lowe","Andrew Sparrow","Jakub Krupa","Will Magee","John Brewin","Will Unwin","Chris Stein","Martin Belam","Alex Sutton","Jessica Murray Midlands correspondent","Hannah Al-Othman North of England correspondent","Anna Betts","Catherine Shoard","Ana Swanson","Keith Bradsher","Patricia Cohen","Erica L. Green","Carol Rosenberg","Eric Schmitt","Michael Crowley","Annie Correal","Jon Caramanica","Joe Coscarelli","Caryn Ganz","Jon Pareles","Lindsay Zoladz","Vanessa Friedman","Patrick Kingsley","Jenny Vrentas","Mitch Smith","Erin Schaff","Soumya Karlamangla","Mimi Dwyer","Carl Zimmer","Claire Moses","Isabella Kwai","Christine Hauser","John Yoon","Tim Balk","Emmanuel Morgan","Gail Collins","Bret Stephens","Abrahm Lustgarten","Catherine Porter","S\u00e9gol\u00e8ne Le Stradic","Troy Closson","J. David Goodman","Katrina Miller","Jos\u00e9 Bautista","Amelia Nierenberg","Matt Stevens"]}'
        headers:
          cache-control: 'no-cache, private'
          content-type: application/json
          access-control-allow-origin: '*'
        description: null
        custom: []
    responseFields: []
    auth: []
    controller: null
    method: null
    route: null
    custom: []
  -
    httpMethods:
      - GET
    uri: api/articles
    metadata:
      groupName: Endpoints
      groupDescription: ''
      subgroup: ''
      subgroupDescription: ''
      title: ''
      description: ''
      authenticated: false
      custom: []
    headers:
      Content-Type: application/json
      Accept: application/json
    urlParameters: []
    cleanUrlParameters: []
    queryParameters: []
    cleanQueryParameters: []
    bodyParameters: []
    cleanBodyParameters: []
    fileParameters: []
    responses:
      -
        status: 200
        content: '{"current_page":1,"data":[{"id":17,"title":"Netanyahu on US visit as Hamas says it is ready to negotiate phase two of ceasefire \u2013 Middle East crisis live","description":null,"url":"https:\/\/www.theguardian.com\/world\/live\/2025\/feb\/03\/middle-east-crisis-live-benjamin-netanyahu-israel-gaza-ceasefire-donald-trump","image":"https:\/\/media.guim.co.uk\/a18271bda488f2f0ee5861668d403ec200bb0fb1\/0_72_1600_960\/500.jpg","source":"Guardian","author":"Daniel Lavelle, Yohannes Lowe","category":"Middle East crisis live, Israel, Gaza, Hamas, Donald Trump, Benjamin Netanyahu, Palestinian territories, US news, World news","published_at":"2025-02-03 17:40:27","created_at":"2025-02-03T17:40:38.000000Z","updated_at":"2025-02-03T17:40:38.000000Z"},{"id":18,"title":"Keir Starmer says he does not accept UK has to choose between US and EU \u2013 UK politics live","description":null,"url":"https:\/\/www.theguardian.com\/politics\/live\/2025\/feb\/03\/keir-starmer-europe-brexit-donald-trump-latest-politics-news-updates-live","image":"https:\/\/media.guim.co.uk\/2887d8133d6ac1b5b4438a9c679516e2d9e64cf6\/160_427_4811_2887\/500.jpg","source":"Guardian","author":"Andrew Sparrow","category":"Politics, UK news, Politics live with Andrew Sparrow, Keir Starmer, Brexit, Labour, Conservatives, European Union, Donald Trump, Trade policy, Foreign policy, Trump administration, Europe, Donald Tusk, Bridget Phillipson, Education, Schools, Ofsted, Greenland, Commonwealth of Nations, King Charles III, Kemi Badenoch, US news, US politics, Monarchy, Green party, Proportional representation","published_at":"2025-02-03 17:40:13","created_at":"2025-02-03T17:40:38.000000Z","updated_at":"2025-02-03T17:40:38.000000Z"},{"id":19,"title":"EU ready to react to \u2018unnecessary and stupid\u2019 tariffs threatened by Trump, leaders say \u2013 Europe live","description":null,"url":"https:\/\/www.theguardian.com\/world\/live\/2025\/feb\/03\/eu-europe-emmanuel-macron-donald-trump-defence-spending-latest-news-updates","image":"https:\/\/media.guim.co.uk\/c1632236dc46fa8784595cf0b37bf6b4e55bf5d0\/0_183_6242_3745\/500.jpg","source":"Guardian","author":"Jakub Krupa","category":"Europe live with Jakub Krupa, Europe, World news, Emmanuel Macron, International trade, Global economy","published_at":"2025-02-03 17:40:02","created_at":"2025-02-03T17:40:38.000000Z","updated_at":"2025-02-03T17:40:38.000000Z"},{"id":20,"title":"Transfer deadline day: Tel heading to Tottenham, Gonz\u00e1lez, F\u00e9lix, Ferguson news and latest moves \u2013 live","description":null,"url":"https:\/\/www.theguardian.com\/football\/live\/2025\/feb\/03\/transfer-deadline-day-rashford-tel-chilwell-disasi-live","image":"https:\/\/media.guim.co.uk\/450845bbc1f321af070ee1db704826774f7a516d\/278_694_5429_3258\/500.jpg","source":"Guardian","author":"Will Magee, John Brewin, Will Unwin","category":"Transfer window, Football, Sport, Premier League, European club football, Manchester United","published_at":"2025-02-03 17:37:15","created_at":"2025-02-03T17:40:38.000000Z","updated_at":"2025-02-03T17:40:38.000000Z"},{"id":21,"title":"Trump pauses plan to impose 25% tariff on Mexico after Sheinbaum agrees to deploy troops to southern US border \u2013 live","description":null,"url":"https:\/\/www.theguardian.com\/us-news\/live\/2025\/feb\/03\/donald-trump-trade-tariffs-eu-mexico-canada-china-us-politics-live","image":"https:\/\/media.guim.co.uk\/07367dde2fb75d5b9f548a8c1f253c1796dbb0de\/1_0_2998_1800\/500.jpg","source":"Guardian","author":"Chris Stein, Martin Belam","category":"Trump administration, US politics live with Chris Stein, US politics live, US news, World news, Donald Trump, Mexico, Canada, China, European Union, US politics, Republicans","published_at":"2025-02-03 17:35:29","created_at":"2025-02-03T17:40:38.000000Z","updated_at":"2025-02-03T17:40:38.000000Z"},{"id":22,"title":"Caroline Reid obituary","description":null,"url":"https:\/\/www.theguardian.com\/education\/2025\/feb\/03\/caroline-reid-obituary","image":"https:\/\/media.guim.co.uk\/d61bec28813c6e43366ee953d9de4af976d02ddf\/0_736_2173_1303\/500.jpg","source":"Guardian","author":"Alex Sutton","category":"Social work, Other lives, Brighton, University of East Anglia, Children","published_at":"2025-02-03 17:32:58","created_at":"2025-02-03T17:40:38.000000Z","updated_at":"2025-02-03T17:40:38.000000Z"},{"id":23,"title":"\u2018Free pint when Forest score!\u2019: pub loses \u00a31,500 after seven-goal rampage","description":null,"url":"https:\/\/www.theguardian.com\/uk-news\/2025\/feb\/03\/free-pint-when-forest-score-pub-loses-1500-after-seven-goal-rampage","image":"https:\/\/media.guim.co.uk\/87e47a145ab0aeec92bcaefffec38635db83ee8c\/0_68_1600_960\/500.jpg","source":"Guardian","author":"Jessica Murray Midlands correspondent","category":"Nottingham, Nottingham Forest, UK news, Football","published_at":"2025-02-03 17:28:20","created_at":"2025-02-03T17:40:38.000000Z","updated_at":"2025-02-03T17:40:38.000000Z"},{"id":24,"title":"Boy, 15, dies after stabbing incident at Sheffield school","description":null,"url":"https:\/\/www.theguardian.com\/uk-news\/2025\/feb\/03\/boy-detained-teenager-stabbed-school-sheffield","image":"https:\/\/media.guim.co.uk\/f8f7c3f0523b5779c0a40064a2219a017ac05486\/0_216_3196_1918\/500.jpg","source":"Guardian","author":"Hannah Al-Othman North of England correspondent","category":"UK news, England","published_at":"2025-02-03 17:28:18","created_at":"2025-02-03T17:40:38.000000Z","updated_at":"2025-02-03T17:40:38.000000Z"},{"id":25,"title":"US hospitals suspend healthcare for transgender youth after Trump order","description":null,"url":"https:\/\/www.theguardian.com\/us-news\/2025\/feb\/03\/trans-youth-healthcare-hospitals-trump","image":"https:\/\/media.guim.co.uk\/caedcfe3e692dced4eaa950041218f9f3c0e1b34\/0_313_6048_3629\/500.jpg","source":"Guardian","author":"Anna Betts","category":"Trump administration, US news, Donald Trump, Transgender, LGBTQ+ rights, Health, Children, US politics","published_at":"2025-02-03 17:14:53","created_at":"2025-02-03T17:40:38.000000Z","updated_at":"2025-02-03T17:40:38.000000Z"},{"id":26,"title":"Cate Blanchett: lack of change in Hollywood after #MeToo \u2018quite distressing\u2019","description":null,"url":"https:\/\/www.theguardian.com\/world\/2025\/feb\/03\/cate-blanchett-lack-of-change-in-hollywood-after-metoo-quite-distressing","image":"https:\/\/media.guim.co.uk\/be7e1295b54a160e0c331e839735fc01b8a8e812\/59_86_4011_2407\/500.jpg","source":"Guardian","author":"Catherine Shoard","category":"Cate Blanchett, #MeToo movement, Film, Culture, Harvey Weinstein","published_at":"2025-02-03 17:13:17","created_at":"2025-02-03T17:40:38.000000Z","updated_at":"2025-02-03T17:40:38.000000Z"}],"first_page_url":"http:\/\/127.0.0.1:8000\/api\/articles?page=1","from":1,"last_page":5,"last_page_url":"http:\/\/127.0.0.1:8000\/api\/articles?page=5","links":[{"url":null,"label":"&laquo; Previous","active":false},{"url":"http:\/\/127.0.0.1:8000\/api\/articles?page=1","label":"1","active":true},{"url":"http:\/\/127.0.0.1:8000\/api\/articles?page=2","label":"2","active":false},{"url":"http:\/\/127.0.0.1:8000\/api\/articles?page=3","label":"3","active":false},{"url":"http:\/\/127.0.0.1:8000\/api\/articles?page=4","label":"4","active":false},{"url":"http:\/\/127.0.0.1:8000\/api\/articles?page=5","label":"5","active":false},{"url":"http:\/\/127.0.0.1:8000\/api\/articles?page=2","label":"Next &raquo;","active":false}],"next_page_url":"http:\/\/127.0.0.1:8000\/api\/articles?page=2","path":"http:\/\/127.0.0.1:8000\/api\/articles","per_page":10,"prev_page_url":null,"to":10,"total":48}'
        headers:
          cache-control: 'no-cache, private'
          content-type: application/json
          access-control-allow-origin: '*'
        description: null
        custom: []
    responseFields: []
    auth: []
    controller: null
    method: null
    route: null
    custom: []
  -
    httpMethods:
      - GET
    uri: api/personalized-feed
    metadata:
      groupName: Endpoints
      groupDescription: ''
      subgroup: ''
      subgroupDescription: ''
      title: ''
      description: ''
      authenticated: false
      custom: []
    headers:
      Content-Type: application/json
      Accept: application/json
    urlParameters: []
    cleanUrlParameters: []
    queryParameters: []
    cleanQueryParameters: []
    bodyParameters: []
    cleanBodyParameters: []
    fileParameters: []
    responses:
      -
        status: 401
        content: '{"message":"Unauthenticated."}'
        headers:
          cache-control: 'no-cache, private'
          content-type: application/json
          access-control-allow-origin: '*'
        description: null
        custom: []
    responseFields: []
    auth: []
    controller: null
    method: null
    route: null
    custom: []
